^D:\16_02_THLEE\UNITY\CSHOP&UNITY2D\LOTTO\LOTTO\DEBUG\SOURCE.OBJ
D:\16_02_THLEE\UNITY\CSHOP&UNITY2D\LOTTO\DEBUG\LOTTO.ILK
D:\16_02_THLEE\UNITY\CSHOP&UNITY2D\LOTTO\DEBUG\LOTTO.EXE
D:\16_02_THLEE\UNITY\CSHOP&UNITY2D\LOTTO\DEBUG\LOTTO.PDB
